Interminable carretera
------------------------------------------------------------------------------------------------
Mapa de la Interminable carretera para BeamNG de la UNIDAD. Excelente directa mapa llamado Interminable Carretera, es un muy, muy largo camino recto, que es en los bordes de los cercados enorme repisas que voló en el extranjero. Esta tarjeta es bueno porque usted será capaz de dispersar el coche al máximo, sin temor a que el camino termina. También la ubicación es perfecta para las carreras con bots: que simplemente no pueden en cualquier lugar de apagar la carretera y conducir directamente a través de él. 

Descargar mod Interminable carretera para BeamNG UNIDAD a los enlaces en la página de abajo.

################################################################################################

AUTORES
------------------------------------------------------------------------------------------------
Nadeox1

################################################################################################

INSTRUCCIONES DE INSTALACIÓN
------------------------------------------------------------------------------------------------
1. La copia de archivos

(!) No se olvide de hacer copias de la original de los archivos reemplazados a ser capaz de eliminar la modificación!

Copie todo el contenido de la carpeta "Copy to game folder" a la carpeta donde está instalado el juego. Confirmar el reemplazo.


################################################################################################

Esta modificación ha sido descargado de www.worldofmods.net

Permanent enlace a modification`s página: http://www.worldofmods.net/beamng/maps/3017-endless-highway.html

Compruebe nuestra sociales groups!
http://vk.com/worldofmodscom
https://twitter.com/worldofmodscom
https://www.facebook.com/worldofmodscom
https://www.youtube.com/worldofmods