Endless highway
------------------------------------------------------------------------------------------------
Map Endless highway for BeamNG DRIVE. Excellent direct map called Endless Highway, is a very, very long straight road, which is on the edges of the fenced huge ledges that you flew abroad. This card is good because you will be able to disperse the car to the max without fear that the road will end. Also the location is perfect for racing with bots: they simply can not anywhere to turn off the road and will drive straight through it. 

Download mod Endless highway for BeamNG DRIVE you to the links on the page below.

################################################################################################

AUTHORS
------------------------------------------------------------------------------------------------
Nadeox1

################################################################################################

INSTALLATION INSTRUCTIONS
------------------------------------------------------------------------------------------------
1. File copying

(!) Do not forget to make copies of the original replaced files to be able to remove the modification!

Copy all the contents of the folder "Copy to game folder" to the folder where the game is installed. Confirm the replacement.


################################################################################################

This modification has been downloaded from www.worldofmods.com

Permanent link to modification`s page: http://www.worldofmods.com/beamng/maps/3017-endless-highway.html

Check out our social groups!
http://vk.com/worldofmodscom
https://twitter.com/worldofmodscom
https://www.facebook.com/worldofmodscom
https://www.youtube.com/worldofmods