Endlose Autobahn
------------------------------------------------------------------------------------------------
Karte Endlosen highway für BeamNG FAHREN. Hervorragende direkte map namens Endlosen Highway, ist eine sehr, sehr lange, gerade Straße, die an den Rändern der riesigen eingezäunten leisten, dass Sie flog im Ausland. Diese Karte ist gut, weil Sie in der Lage, sich zu zerstreuen, das Auto zu max, ohne Angst, dass der Weg zu Ende gehen wird. Auch die Lage ist perfekt für den Rennsport mit bots: Sie können einfach nicht überall zu biegen von der Straße ab und fahren Sie geradeaus durch. 

Download mod Endlosen highway für BeamNG FAHREN Sie auf die links auf der Seite unten.

################################################################################################

AUTOREN
------------------------------------------------------------------------------------------------
Nadeox1

################################################################################################

EINBAUANLEITUNG
------------------------------------------------------------------------------------------------
1. Kopieren von Dateien

(!) Vergessen Sie nicht, machen Kopien des Originals ersetzt Dateien in der Lage sein, um die Änderung zu entfernen!

Kopieren Sie den gesamten Inhalt des Ordners "Copy to game folder" auf den Ordner, in dem das Spiel installiert ist. Bestätigen Sie den Ersatz.


################################################################################################

Diese Modifikation wurde von www.worldofmods.eu heruntergeladen wurden
Permanent Link zu Seite modification`s: http://www.worldofmods.eu/de/beamng/maps/3017-endless-highway.html

Überprüfen unsere sozialen groups!
http://vk.com/worldofmodscom
https://twitter.com/worldofmodscom
https://www.facebook.com/worldofmodscom
https://www.youtube.com/worldofmods