Infinita highway
------------------------------------------------------------------------------------------------
Mapa Infinita highway, para BeamNG UNIDADE. Excelente direto mapa chamado Infinita Highway, é uma longa, muito longa estrada reta, que está nas bordas da cercado de enormes lajes que você voou no exterior. Este cartão é bom, porque você vai ser capaz de dispersar o carro ao máximo, sem medo de que a estrada terá fim. Também o local é perfeito para corridas com bots: eles simplesmente não podem em qualquer lugar para desativar a estrada e atravesse-a. 

Download mod Infinita highway, para BeamNG UNIDADE de você para os links na página a seguir.

################################################################################################

AUTORES
------------------------------------------------------------------------------------------------
Nadeox1

################################################################################################

INSTRUÇÕES DE INSTALAÇÃO
------------------------------------------------------------------------------------------------
1. Cópia de arquivo

(!) Não se esqueça de fazer cópias do original arquivos substituídos para ser capaz de remover a modificação!

Copie todo o conteúdo da pasta "Copy to game folder" para a pasta onde o jogo está instalado. Confirmar a substituição.


################################################################################################

Esta modificação foi baixado www.worldofmods.org

Permanent link para modification`s página: http://www.worldofmods.org/beamng/maps/3017-endless-highway.html

Check a nossa sociais groups!
http://vk.com/worldofmodscom
https://twitter.com/worldofmodscom
https://www.facebook.com/worldofmodscom
https://www.youtube.com/worldofmods