Sans fin de l'autoroute
------------------------------------------------------------------------------------------------
Carte sans fin de l'autoroute pour BeamNG LECTEUR. Excellent direct carte appelée sans fin de l'Autoroute, est une très, très longue route droite, qui est sur les bords de l'clôturé énormes corniches que vous avez voyagé à l'étranger. Cette carte est bien parce que vous serez en mesure de disperser la voiture au max sans avoir à craindre que la route se termine. Aussi, l'emplacement est parfait pour les courses avec des bots: ils ne peuvent tout simplement pas n'importe où, à son tour hors de la route et continuer tout droit à travers elle. 

Télécharger le mod sans fin de l'autoroute pour BeamNG vous CONDUIRE vers les liens sur la page ci-dessous.

################################################################################################

AUTEURS
------------------------------------------------------------------------------------------------
Nadeox1

################################################################################################

INSTRUCTIONS D'INSTALLATION
------------------------------------------------------------------------------------------------
1. La copie des fichiers

(!) Ne pas oublier de faire des copies de l'original remplacés fichiers pour être en mesure de retirer la modification!

Copiez tout le contenu du dossier "Copy to game folder" dans le dossier où le jeu est installé. Confirmer le remplacement.


################################################################################################

Cette modification a été téléchargé à partir de www.worldofmods.eu

Permanent lien vers modification`s page: http://www.worldofmods.eu/fr/beamng/maps/3017-endless-highway.html

Vérifier notre sociale groups!
http://vk.com/worldofmodscom
https://twitter.com/worldofmodscom
https://www.facebook.com/worldofmodscom
https://www.youtube.com/worldofmods