Бесконечное шоссе
------------------------------------------------------------------------------------------------
Карта Бесконечное шоссе для BeamNG DRIVE. Отличная прямая карта под названием Endless Highway, представляет из себя очень и очень длинную прямую трассу, которая по краям ограждена огромными выступами, чтобы вы не вылетели за её пределы. Эта карта хороша тем, что вы сможете разогнать автомобиль до максимума не боясь, что дорога закончится. Также локация отлично подойдет для гонки с ботами: они попросту не смогут никуда свернуть с трассы и будут гнать прямиком по ней.

Скачать мод Бесконечное шоссе для BeamNG DRIVE можно по ссылкам, расположенным ниже на странице.

################################################################################################

АВТОРЫ
------------------------------------------------------------------------------------------------
Nadeox1

################################################################################################

ИНСТРУКЦИИ ПО УСТАНОВКЕ
------------------------------------------------------------------------------------------------
1. Копирование файлов

(!) Не забудьте сделать оригинальные копии заменяемых файлов, чтобы иметь возможность удалить модификацию!

Все содержимое папки "Copy to game folder" скопируйте в папку с игрой. Если потребуется подтвердите замену.


################################################################################################

Эта модификация была скачана с сайта www.worldofmods.ru

Постоянная ссылка на страницу модификации: http://www.worldofmods.ru/beamng/maps/3017-endless-highway.html

Присоединяйтесь к нам в социальных сетях!
http://vk.com/worldofmods
https://twitter.com/worldofmodscom
https://www.facebook.com/worldofmodscom
https://www.youtube.com/worldofmods